…
-   How do we then extract the top ten?

First of all, we group the dataset by the `Counrtry_Region` column and
compute the sum of the number of tested, positive, active and
hospitalized cases and arrange the dataframe accordingly:

``` r
covid_df_all_states_daily_sum <- covid_df_all_states_daily %>% group_by(Country_Region) %>% summarize(tested=sum(daily_tested), positive=sum(daily_positive), active=sum(active), hospitalized=sum(hospitalizedCurr)) %>% arrange(-tested)

# Visualisation of generated dataframe:
covid_df_all_states_daily_sum
```

    ## # A tibble: 108 x 5
    ##    Country_Region   tested positive  active hospitalized
    ##    <chr>             <int>    <int>   <int>        <int>
    ##  1 United States  17282363  1877179       0            0
    ##  2 Russia         10542266   406368 6924890            0
    ##  3 Italy           4091291   251710 6202214      1699003
    ##  4 India           3692851    60959       0            0
    ##  5 Turkey          2031192   163941 2980960            0
    ##  6 Canada          1654779    90873   56454            0
    ##  7 United Kingdom  1473672   166909       0            0
    ##  8 Australia       1252900     7200  134586         6655
    ##  9 Peru             976790    59497       0            0
    ## 10 Poland           928256    23987  538203            0
    ## # ... with 98 more rows
…
